{
  "name": "<%= projectName %>",
  "version": "0.0.1",
  "author": "<%= author %>",
  "dependencies": {
    "ampersand-app": "^1.0.0",
    "ampersand-dom": "^1.2.1",
    "ampersand-form-view": "^3.1.1",
    "ampersand-input-view": "^4.0.5",
    "ampersand-model": "^5.0.3",
    "ampersand-rest-collection": "^4.0.0",
    "ampersand-router": "^3.0.1",
    "ampersand-view": "^7.0.1",
    "ampersand-view-switcher": "^2.0.0",
    "andlog": "^1.0.0",
    "async": "^0.9.0",
    "clientconfig": "^1.0.0",
    "domify": "^1.3.0",
    "domready": "^1.0.5",
    "favicon-setter": "^0.1.1",
    "getconfig": "^2.1.0",
    "hapi": "^8.0.0",
    "jade": "^1.10.0",
    "jade-loader": "^0.7.1",
    "local-links": "^1.2.0",
    "lodash": "^3.6.0",
    "stylizer": "^2.1.0"
  },
  "devDependencies": {
    "node-libs-browser": "^0.5.2",
    "templatizer": "^1.5.0",
    "watchy": "latest",
    "parallelshell": "latest",
    "webpack": "^1.9.10",
    "chai": "latest",
    "mocha": "latest",
    "stylus": "latest"
  },
  "jshintConfig": {
    "asi": false,
    "browser": true,
    "curly": false,
    "expr": true,
    "indent": 4,
    "loopfunc": true,
    "node": true,
    "trailing": true,
    "undef": true,
    "white": true
  },
  "main": "server.js",
  "scripts": {
      "test": "mocha test",
      "start:dev": "",
      "build:jade": "templatizer -d templates -o client/templates.js",
      "build:css": "stylus stylesheets",
      "build:js": "webpack",
      "build:watch": "parallelshell 'npm run watch:js' 'npm run watch:css' 'npm run watch:jade' 'npm run start'",
      "watch:js": "webpack --watch",
      "watch:css": "stylus -w stylesheets",
      "watch:jade": "watchy -w templates -- npm run build:jade",
      "build": "npm run build:js && npm run build:css && npm run build:jade"
  }
}
